Lab4/simulation/qsim/LogicalStep_Lab4.msim.vcd
$comment
	File created using the following command:
		vcd file LogicalStep_Lab4.msim.vcd -direction
$end
$date
	Thu Jun 28 15:20:21 2018
$end
$version
	ModelSim Version 10.4b
$end
$timescale
	1ps
$end

$scope module LogicalStep_Lab4_top_vlg_vec_tst $end
$var reg 1 ! clkin_50 $end
$var reg 4 " pb [3:0] $end
$var reg 1 # rst_n $end
$var reg 8 $ sw [7:0] $end
$var wire 1 % leds [7] $end
$var wire 1 & leds [6] $end
$var wire 1 ' leds [5] $end
$var wire 1 ( leds [4] $end
$var wire 1 ) leds [3] $end
$var wire 1 * leds [2] $end
$var wire 1 + leds [1] $end
$var wire 1 , leds [0] $end
$var wire 1 - seg7_char1 $end
$var wire 1 . seg7_char2 $end
$var wire 1 / seg7_data [6] $end
$var wire 1 0 seg7_data [5] $end
$var wire 1 1 seg7_data [4] $end
$var wire 1 2 seg7_data [3] $end
$var wire 1 3 seg7_data [2] $end
$var wire 1 4 seg7_data [1] $end
$var wire 1 5 seg7_data [0] $end

$scope module i1 $end
$var wire 1 6 gnd $end
$var wire 1 7 vcc $end
$var wire 1 8 unknown $end
$var tri1 1 9 devclrn $end
$var tri1 1 : devpor $end
$var tri1 1 ; devoe $end
$var wire 1 < rst_n~input_o $end
$var wire 1 = pb[2]~input_o $end
$var wire 1 > pb[3]~input_o $end
$var wire 1 ? sw[0]~input_o $end
$var wire 1 @ sw[1]~input_o $end
$var wire 1 A sw[2]~input_o $end
$var wire 1 B sw[3]~input_o $end
$var wire 1 C sw[4]~input_o $end
$var wire 1 D sw[5]~input_o $end
$var wire 1 E sw[6]~input_o $end
$var wire 1 F sw[7]~input_o $end
$var wire 1 G leds[0]~output_o $end
$var wire 1 H leds[1]~output_o $end
$var wire 1 I leds[2]~output_o $end
$var wire 1 J leds[3]~output_o $end
$var wire 1 K leds[4]~output_o $end
$var wire 1 L leds[5]~output_o $end
$var wire 1 M leds[6]~output_o $end
$var wire 1 N leds[7]~output_o $end
$var wire 1 O seg7_data[0]~output_o $end
$var wire 1 P seg7_data[1]~output_o $end
$var wire 1 Q seg7_data[2]~output_o $end
$var wire 1 R seg7_data[3]~output_o $end
$var wire 1 S seg7_data[4]~output_o $end
$var wire 1 T seg7_data[5]~output_o $end
$var wire 1 U seg7_data[6]~output_o $end
$var wire 1 V seg7_char1~output_o $end
$var wire 1 W seg7_char2~output_o $end
$var wire 1 X clkin_50~input_o $end
$var wire 1 Y INST2|ud_bin_counter[0]~8_combout $end
$var wire 1 Z pb[1]~input_o $end
$var wire 1 [ pb[0]~input_o $end
$var wire 1 \ INST2|process_0~0_combout $end
$var wire 1 ] INST2|ud_bin_counter[0]~9 $end
$var wire 1 ^ INST2|ud_bin_counter[1]~10_combout $end
$var wire 1 _ INST2|ud_bin_counter[1]~11 $end
$var wire 1 ` INST2|ud_bin_counter[2]~12_combout $end
$var wire 1 a INST2|ud_bin_counter[2]~13 $end
$var wire 1 b INST2|ud_bin_counter[3]~14_combout $end
$var wire 1 c INST2|ud_bin_counter[3]~15 $end
$var wire 1 d INST2|ud_bin_counter[4]~16_combout $end
$var wire 1 e INST2|ud_bin_counter[4]~17 $end
$var wire 1 f INST2|ud_bin_counter[5]~18_combout $end
$var wire 1 g INST2|ud_bin_counter[5]~19 $end
$var wire 1 h INST2|ud_bin_counter[6]~20_combout $end
$var wire 1 i INST2|ud_bin_counter[6]~21 $end
$var wire 1 j INST2|ud_bin_counter[7]~22_combout $end
$var wire 1 k INST2|ud_bin_counter [7] $end
$var wire 1 l INST2|ud_bin_counter [6] $end
$var wire 1 m INST2|ud_bin_counter [5] $end
$var wire 1 n INST2|ud_bin_counter [4] $end
$var wire 1 o INST2|ud_bin_counter [3] $end
$var wire 1 p INST2|ud_bin_counter [2] $end
$var wire 1 q INST2|ud_bin_counter [1] $end
$var wire 1 r INST2|ud_bin_counter [0] $end
$upscope $end
$upscope $end
$enddefinitions $end
#0
$dumpvars
0!
bx11 "
0#
bx $
0,
0+
0*
0)
0(
0'
0&
0%
0-
0.
05
04
03
02
01
00
0/
06
17
x8
19
1:
1;
0<
x=
x>
x?
x@
xA
xB
xC
xD
xE
xF
0G
0H
0I
0J
0K
0L
0M
0N
0O
0P
0Q
0R
0S
0T
0U
0V
0W
0X
1Y
1Z
1[
1\
0]
0^
1_
0`
0a
0b
1c
0d
0e
0f
1g
0h
0i
0j
0r
0q
0p
0o
0n
0m
0l
0k
$end
#10000
1!
1X
1r
1G
1]
1,
0Y
1^
#20000
0!
0X
#30000
1!
1X
1q
0r
0G
1H
0_
0]
1+
0,
0^
1Y
1_
1`
1^
0`
#40000
0!
0X
#50000
1!
1X
1r
1G
1]
1,
0Y
0_
0^
1`
#60000
0!
0X
#70000
1!
1X
1p
0q
0r
0G
0H
1I
1a
1_
0]
1*
0+
0,
0`
1^
1Y
0a
1b
1`
0^
0b
#80000
0!
0X
#90000
1!
1X
1r
1G
1]
1,
0Y
1^
#100000
0!
0X
#110000
1!
1X
1q
0r
0G
1H
0_
0]
1+
0,
0^
1Y
1a
1_
0`
1^
0a
1b
1`
0b
#120000
1#
0!
1<
0X
#130000
1!
1X
1r
1G
1]
1,
0Y
0_
0^
1a
0`
1b
#140000
0!
0X
#150000
1!
1X
1o
0p
0q
0r
0G
0H
0I
1J
0c
0a
1_
0]
1)
0*
0+
0,
0b
1`
1^
1Y
1c
1d
1b
0`
0^
0d
#160000
0!
0X
#170000
1!
1X
1r
1G
1]
1,
0Y
1^
#180000
0!
0X
#190000
1!
1X
1q
0r
0G
1H
0_
0]
1+
0,
0^
1Y
1_
1`
1^
0`
#200000
0!
0X
#210000
1!
1X
1r
1G
1]
1,
0Y
0_
0^
1`
#220000
0!
0X
#230000
1!
1X
1p
0q
0r
0G
0H
1I
1a
1_
0]
1*
0+
0,
0`
1^
1Y
0c
0a
0b
1`
0^
1c
1d
1b
0d
#240000
0!
0X
#250000
1!
1X
1r
1G
1]
1,
0Y
1^
#260000
0!
0X
#270000
1!
1X
1q
0r
0G
1H
0_
0]
1+
0,
0^
1Y
1a
1_
0`
1^
0c
0a
0b
1`
1c
1d
1b
0d
#280000
0!
0X
#290000
1!
1X
1r
1G
1]
1,
0Y
0_
0^
1a
0`
0c
0b
1d
#300000
0!
0X
#310000
1!
1X
1n
0o
0p
0q
0r
0G
0H
0I
0J
1K
1e
1c
0a
1_
0]
1(
0)
0*
0+
0,
0d
1b
1`
1^
1Y
0e
1f
1d
0b
0`
0^
0f
#320000
0!
0X
#330000
1!
1X
1r
1G
1]
1,
0Y
1^
#340000
0!
0X
#350000
1!
1X
1q
0r
0G
1H
0_
0]
1+
0,
0^
1Y
1_
1`
1^
0`
#360000
0!
0X
#370000
1!
1X
1r
1G
1]
1,
0Y
0_
0^
1`
#380000
0!
0X
#390000
1!
1X
1p
0q
0r
0G
0H
1I
1a
1_
0]
1*
0+
0,
0`
1^
1Y
0a
1b
1`
0^
0b
#400000
0!
0X
#410000
1!
1X
1r
1G
1]
1,
0Y
1^
#420000
0!
0X
#430000
1!
1X
1q
0r
0G
1H
0_
0]
1+
0,
0^
1Y
1a
1_
0`
1^
0a
1b
1`
0b
#440000
0!
0X
#450000
1!
1X
1r
1G
1]
1,
0Y
0_
0^
1a
0`
1b
#460000
0!
0X
#470000
1!
1X
1o
0p
0q
0r
0G
0H
0I
1J
0c
0a
1_
0]
1)
0*
0+
0,
0b
1`
1^
1Y
1e
1c
0d
1b
0`
0^
0e
1f
1d
0f
#480000
0!
0X
#490000
1!
1X
1r
1G
1]
1,
0Y
1^
#500000
0!
0X
#510000
1!
1X
1q
0r
0G
1H
0_
0]
1+
0,
0^
1Y
1_
1`
1^
0`
#520000
0!
0X
#530000
1!
1X
1r
1G
1]
1,
0Y
0_
0^
1`
#540000
0!
0X
#550000
1!
1X
1p
0q
0r
0G
0H
1I
1a
1_
0]
1*
0+
0,
0`
1^
1Y
0c
0a
0b
1`
0^
1e
1c
0d
1b
0e
1f
1d
0f
#560000
0!
0X
#570000
1!
1X
1r
1G
1]
1,
0Y
1^
#580000
0!
0X
#590000
1!
1X
1q
0r
0G
1H
0_
0]
1+
0,
0^
1Y
1a
1_
0`
1^
0c
0a
0b
1`
1e
1c
0d
1b
0e
1f
1d
0f
#600000
0!
0X
#610000
1!
1X
1r
1G
1]
1,
0Y
0_
0^
1a
0`
0c
0b
1e
0d
1f
#620000
0!
0X
#630000
1!
1X
1m
0n
0o
0p
0q
0r
0G
0H
0I
0J
0K
1L
0g
0e
1c
0a
1_
0]
1'
0(
0)
0*
0+
0,
0f
1d
1b
1`
1^
1Y
1g
1h
1f
0d
0b
0`
0^
0h
#640000
0!
0X
#650000
1!
1X
1r
1G
1]
1,
0Y
1^
#660000
0!
0X
#670000
1!
1X
1q
0r
0G
1H
0_
0]
1+
0,
0^
1Y
1_
1`
1^
0`
#680000
0!
0X
#690000
1!
1X
1r
1G
1]
1,
0Y
0_
0^
1`
#700000
0!
0X
#710000
1!
1X
1p
0q
0r
0G
0H
1I
1a
1_
0]
1*
0+
0,
0`
1^
1Y
0a
1b
1`
0^
0b
#720000
0!
0X
#730000
1!
1X
1r
1G
1]
1,
0Y
1^
#740000
0!
0X
#750000
1!
1X
1q
0r
0G
1H
0_
0]
1+
0,
0^
1Y
1a
1_
0`
1^
0a
1b
1`
0b
#760000
0!
0X
#770000
1!
1X
1r
1G
1]
1,
0Y
0_
0^
1a
0`
1b
#780000
0!
0X
#790000
1!
1X
1o
0p
0q
0r
0G
0H
0I
1J
0c
0a
1_
0]
1)
0*
0+
0,
0b
1`
1^
1Y
1c
1d
1b
0`
0^
0d
#800000
0!
0X
#810000
1!
1X
1r
1G
1]
1,
0Y
1^
#820000
0!
0X
#830000
1!
1X
1q
0r
0G
1H
0_
0]
1+
0,
0^
1Y
1_
1`
1^
0`
#840000
0!
0X
#850000
1!
1X
1r
1G
1]
1,
0Y
0_
0^
1`
#860000
0!
0X
#870000
1!
1X
1p
0q
0r
0G
0H
1I
1a
1_
0]
1*
0+
0,
0`
1^
1Y
0c
0a
0b
1`
0^
1c
1d
1b
0d
#880000
0!
0X
#890000
1!
1X
1r
1G
1]
1,
0Y
1^
#900000
0!
0X
#910000
1!
1X
1q
0r
0G
1H
0_
0]
1+
0,
0^
1Y
1a
1_
0`
1^
0c
0a
0b
1`
1c
1d
1b
0d
#920000
0!
0X
#930000
1!
1X
1r
1G
1]
1,
0Y
0_
0^
1a
0`
0c
0b
1d
#940000
0!
0X
#950000
1!
1X
1n
0o
0p
0q
0r
0G
0H
0I
0J
1K
1e
1c
0a
1_
0]
1(
0)
0*
0+
0,
0d
1b
1`
1^
1Y
0g
0e
0f
1d
0b
0`
0^
1g
1h
1f
0h
#960000
0!
0X
#970000
1!
1X
1r
1G
1]
1,
0Y
1^
#980000
0!
0X
#990000
1!
1X
1q
0r
0G
1H
0_
0]
1+
0,
0^
1Y
1_
1`
1^
0`
#1000000
0!
0X
#1010000
1!
1X
1r
1G
1]
1,
0Y
0_
0^
1`
#1020000
0!
0X
#1030000
1!
1X
1p
0q
0r
0G
0H
1I
1a
1_
0]
1*
0+
0,
0`
1^
1Y
0a
1b
1`
0^
0b
#1040000
0!
0X
#1050000
1!
1X
1r
1G
1]
1,
0Y
1^
#1060000
0!
0X
#1070000
1!
1X
1q
0r
0G
1H
0_
0]
1+
0,
0^
1Y
1a
1_
0`
1^
0a
1b
1`
0b
#1080000
0!
0X
#1090000
1!
1X
1r
1G
1]
1,
0Y
0_
0^
1a
0`
1b
#1100000
0!
0X
#1110000
1!
1X
1o
0p
0q
0r
0G
0H
0I
1J
0c
0a
1_
0]
1)
0*
0+
0,
0b
1`
1^
1Y
1e
1c
0d
1b
0`
0^
0g
0e
0f
1d
1g
1h
1f
0h
#1120000
0!
0X
#1130000
1!
1X
1r
1G
1]
1,
0Y
1^
#1140000
0!
0X
#1150000
1!
1X
1q
0r
0G
1H
0_
0]
1+
0,
0^
1Y
1_
1`
1^
0`
#1160000
0!
0X
#1170000
1!
1X
1r
1G
1]
1,
0Y
0_
0^
1`
#1180000
0!
0X
#1190000
1!
1X
1p
0q
0r
0G
0H
1I
1a
1_
0]
1*
0+
0,
0`
1^
1Y
0c
0a
0b
1`
0^
1e
1c
0d
1b
0g
0e
0f
1d
1g
1h
1f
0h
#1200000
0!
0X
#1210000
1!
1X
1r
1G
1]
1,
0Y
1^
#1220000
0!
0X
#1230000
1!
1X
1q
0r
0G
1H
0_
0]
1+
0,
0^
1Y
1a
1_
0`
1^
0c
0a
0b
1`
1e
1c
0d
1b
0g
0e
0f
1d
1g
1h
1f
0h
#1240000
0!
0X
#1250000
1!
1X
1r
1G
1]
1,
0Y
0_
0^
1a
0`
0c
0b
1e
0d
0g
0f
1h
#1260000
0!
0X
#1270000
1!
1X
1l
0m
0n
0o
0p
0q
0r
0G
0H
0I
0J
0K
0L
1M
1i
1g
0e
1c
0a
1_
0]
1&
0'
0(
0)
0*
0+
0,
0h
1f
1d
1b
1`
1^
1Y
0i
1j
1h
0f
0d
0b
0`
0^
0j
#1280000
0!
0X
#1290000
1!
1X
1r
1G
1]
1,
0Y
1^
#1300000
0!
0X
#1310000
1!
1X
1q
0r
0G
1H
0_
0]
1+
0,
0^
1Y
1_
1`
1^
0`
#1320000
0!
0X
#1330000
1!
1X
1r
1G
1]
1,
0Y
0_
0^
1`
#1340000
0!
0X
#1350000
1!
1X
1p
0q
0r
0G
0H
1I
1a
1_
0]
1*
0+
0,
0`
1^
1Y
0a
1b
1`
0^
0b
#1360000
0!
0X
#1370000
1!
1X
1r
1G
1]
1,
0Y
1^
#1380000
0!
0X
#1390000
1!
1X
1q
0r
0G
1H
0_
0]
1+
0,
0^
1Y
1a
1_
0`
1^
0a
1b
1`
0b
#1400000
0!
0X
#1410000
1!
1X
1r
1G
1]
1,
0Y
0_
0^
1a
0`
1b
#1420000
0!
0X
#1430000
1!
1X
1o
0p
0q
0r
0G
0H
0I
1J
0c
0a
1_
0]
1)
0*
0+
0,
0b
1`
1^
1Y
1c
1d
1b
0`
0^
0d
#1440000
bx10 "
0!
0[
0X
0\
1i
0c
1j
0h
1f
1d
0b
1`
1^
1e
0j
0d
0g
0f
1h
#1450000
1!
1X
0o
1p
1q
1r
1G
1H
1I
0J
1c
1a
0_
1]
0)
1*
1+
1,
1b
0`
0^
0Y
0e
0c
1d
0b
1`
1^
1g
1e
1f
0d
0g
0h
0f
1h
#1460000
0!
0X
#1470000
1!
1X
0r
0G
0]
0,
1Y
0^
#1480000
0!
0X
#1490000
1!
1X
0q
1r
1G
0H
1_
1]
0+
1,
1^
0Y
0_
0`
0^
1`
#1500000
0!
0X
#1510000
1!
1X
0r
0G
0]
0,
1Y
1_
1^
0`
#1520000
0!
0X
#1530000
1!
1X
0p
1q
1r
1G
1H
0I
0a
0_
1]
0*
1+
1,
1`
0^
0Y
1c
1a
1b
0`
1^
0e
0c
1d
0b
1g
1e
1f
0d
0g
0h
0f
1h
#1540000
0!
0X
#1550000
1!
1X
0r
0G
0]
0,
1Y
0^
#1560000
0!
0X
#1570000
1!
1X
0q
1r
1G
0H
1_
1]
0+
1,
1^
0Y
0a
0_
1`
0^
1c
1a
1b
0`
0e
0c
1d
0b
1g
1e
1f
0d
0g
0h
0f
1h
#1580000
0!
0X
#1590000
1!
1X
0r
0G
0]
0,
1Y
1_
1^
0a
1`
1c
1b
0e
1d
1g
1f
0h
#1600000
0!
0X
#1610000
1!
1X
0l
1m
1n
1o
1p
1q
1r
1G
1H
1I
1J
1K
1L
0M
0i
0g
1e
0c
1a
0_
1]
0&
1'
1(
1)
1*
1+
1,
1h
0f
0d
0b
0`
0^
0Y
1i
1j
0h
1f
1d
1b
1`
1^
0j
#1620000
0!
0X
#1630000
1!
1X
0r
0G
0]
0,
1Y
0^
#1640000
0!
0X
#1650000
1!
1X
0q
1r
1G
0H
1_
1]
0+
1,
1^
0Y
0_
0`
0^
1`
#1660000
0!
0X
#1670000
1!
1X
0r
0G
0]
0,
1Y
1_
1^
0`
#1680000
0!
0X
#1690000
1!
1X
0p
1q
1r
1G
1H
0I
0a
0_
1]
0*
1+
1,
1`
0^
0Y
1a
0b
0`
1^
1b
#1700000
0!
0X
#1710000
1!
1X
0r
0G
0]
0,
1Y
0^
#1720000
0!
0X
#1730000
1!
1X
0q
1r
1G
0H
1_
1]
0+
1,
1^
0Y
0a
0_
1`
0^
1a
0b
0`
1b
#1740000
0!
0X
#1750000
1!
1X
0r
0G
0]
0,
1Y
1_
1^
0a
1`
0b
#1760000
0!
0X
#1770000
1!
1X
0o
1p
1q
1r
1G
1H
1I
0J
1c
1a
0_
1]
0)
1*
1+
1,
1b
0`
0^
0Y
0c
0d
0b
1`
1^
1d
#1780000
0!
0X
#1790000
1!
1X
0r
0G
0]
0,
1Y
0^
#1800000
0!
0X
#1810000
1!
1X
0q
1r
1G
0H
1_
1]
0+
1,
1^
0Y
0_
0`
0^
1`
#1820000
0!
0X
#1830000
1!
1X
0r
0G
0]
0,
1Y
1_
1^
0`
#1840000
0!
0X
#1850000
1!
1X
0p
1q
1r
1G
1H
0I
0a
0_
1]
0*
1+
1,
1`
0^
0Y
1c
1a
1b
0`
1^
0c
0d
0b
1d
#1860000
0!
0X
#1870000
1!
1X
0r
0G
0]
0,
1Y
0^
#1880000
0!
0X
#1890000
1!
1X
0q
1r
1G
0H
1_
1]
0+
1,
1^
0Y
0a
0_
1`
0^
1c
1a
1b
0`
0c
0d
0b
1d
#1900000
0!
0X
#1910000
1!
1X
0r
0G
0]
0,
1Y
1_
1^
0a
1`
1c
1b
0d
#1920000
0!
0X
#1930000
1!
1X
0n
1o
1p
1q
1r
1G
1H
1I
1J
0K
0e
0c
1a
0_
1]
0(
1)
1*
1+
1,
1d
0b
0`
0^
0Y
1e
0f
0d
1b
1`
1^
1f
#1940000
0!
0X
#1950000
1!
1X
0r
0G
0]
0,
1Y
0^
#1960000
0!
0X
#1970000
1!
1X
0q
1r
1G
0H
1_
1]
0+
1,
1^
0Y
0_
0`
0^
1`
#1980000
0!
0X
#1990000
1!
1X
0r
0G
0]
0,
1Y
1_
1^
0`
